%YAML 1.1
%TAG !u! tag:unity3d.com,2011:
--- !u!1045 &1
EditorBuildSettings:
  m_ObjectHideFlags: 0
  serializedVersion: 2
  m_Scenes:
  - enabled: 1
    path: Assets/Scenes/Level_01.unity
    guid: bdc6f144e86ea114689c874ad7e45bc6
  - enabled: 1
    path: Assets/Scenes/Level_02.unity
    guid: 9fc0d4010bbf28b4594072e72b8655ab
  - enabled: 1
    path: Assets/Scenes/Level_03.unity
    guid: b72fb2c5aed602b458f9b4dd85a14e04
  m_configObjects: {}
